<?xml version="1.0" standalone="no"?>
<!DOCTYPE svg PUBLIC "-//W3C//DTD SVG 1.1//EN" "http://www.w3.org/Graphics/SVG/1.1/DTD/svg11.dtd" >
<!--
2016-10-7: Created with FontForge (http://fontforge.org)
-->
<svg xmlns="http://www.w3.org/2000/svg" xmlns:xlink="http://www.w3.org/1999/xlink" version="1.1">
<metadata>
Created by FontForge 20161003 at Fri Oct  7 01:51:58 2016
 By Peter Knijff
Copyright (c) 2016, Peter Knijff
</metadata>
<defs>
<font id="digirent-font" horiz-adv-x="512" >
  <font-face 
    font-family="digirent-font"
    font-weight="400"
    font-stretch="normal"
    units-per-em="512"
    panose-1="2 0 5 3 0 0 0 0 0 0"
    ascent="448"
    descent="-64"
    bbox="0 -266.613 623.068 248.438"
    underline-thickness="25.6"
    underline-position="-51.2"
    unicode-range="U+0020-F104"
  />
    <missing-glyph />
    <glyph glyph-name="space" unicode=" " horiz-adv-x="200" 
 />
    <glyph glyph-name="uniF104" unicode="&#xf104;" 
d="M267.287 246.632l274.512 -136.354v-44.2461l-270.899 136.353l-270.899 -136.353v44.2461zM270.899 180.713l70.4336 -35.2178l-70.4336 -42.4404l-70.4336 42.4404zM156.219 122.921l74.0459 -44.2471l-93.0088 -55.083v-88.4941l44.2471 -22.5742v89.3965
l89.3965 52.374l89.3965 -53.2773v-88.4932l44.2471 22.5742v89.3975l-93.0088 54.1797l74.0459 44.2471l108.36 -54.1797v-223.041l-223.041 -111.068l-223.04 111.068v223.041z" />
    <glyph glyph-name="uniF103" unicode="&#xf103;" 
d="M534.575 134.659l78.5605 -86.6875v-75.8516h-269.094v17.1572c0 10.8359 -9.0293 20.7686 -19.8652 20.7686h-40.6357c-10.8359 0 -20.7686 -9.93262 -20.7686 -20.7686v-17.1572h-262.772v75.8516l79.4639 87.5908h25.2842
c-0.90332 0 -1.80664 -1.80566 -1.80664 -1.80566c-1.80566 -3.6123 -3.61133 -8.12695 -3.61133 -11.7393v-20.7686c0 -13.5449 11.7383 -22.5752 25.2832 -22.5752h58.6953c13.5449 0 22.5752 9.03027 22.5752 22.5752v34.3135h11.7393h177.891h4.51465v-34.3135
c0 -13.5449 9.93262 -22.5752 22.5752 -22.5752h58.6943c12.6426 0 25.2842 9.03027 25.2842 22.5752v20.7686c0 3.6123 -1.80566 8.12695 -3.6123 11.7393c-0.902344 0 -1.80566 0.902344 -1.80566 0.902344h12.6416h20.7695zM125.517 97.6367
c-3.6123 0 -6.32129 0 -5.41797 3.6123v20.7686c0 1.80566 0 2.70898 0.90332 3.6123c0.902344 1.80566 2.70898 3.61133 5.41797 3.61133h20.7686h3.6123c4.51465 0 10.8359 0 12.6416 6.32129v3.6123v90.2998c0 9.93262 8.12695 18.9629 18.0605 18.9629h243.81
c10.8359 0 18.9629 -9.03027 18.9629 -18.9629v-90.2998c0 -9.93359 8.12695 -9.93359 12.6416 -9.93359h3.6123h21.6719c1.80566 0 4.51465 -1.80566 5.41797 -3.61133c0 -0.90332 0.90332 -2.70898 0.90332 -3.6123v-20.7686c0 -3.6123 -2.70898 -3.6123 -6.32129 -3.6123
h-58.6953c-3.61133 0 -3.61133 0 -3.61133 3.6123v34.3135v1.80566v68.6279c0 6.32129 -8.12695 11.7393 -13.5449 11.7393h-205.884c-5.41797 0 -12.6426 -6.32129 -12.6426 -11.7393v-68.6279v-1.80566v-34.3135c0 -3.6123 0 -3.6123 -3.61133 -3.6123h-58.6953z
M344.042 -64v18.0596h250.131v-176.084v-17.1572c0 -13.5449 -10.8359 -25.2842 -24.3809 -25.2842h-521.933c-13.5459 0 -22.5752 12.6426 -22.5752 26.1875v192.338h237.488v-18.0596v-17.1572c0 -11.7383 9.93262 -21.6719 20.7686 -21.6719h40.6357
c10.8359 0 19.8652 10.8359 19.8652 21.6719v17.1572zM325.079 -45.9404v-17.1562v-17.1572c0 -1.80566 0.90332 -2.70898 -0.902344 -2.70898h-40.6357c-0.902344 0 -1.80566 0.90332 -1.80566 2.70898v17.1572v18.0596v0v18.0596v17.1572
c0 0.90332 0.90332 1.80664 1.80566 1.80664h40.6357c0.902344 0 0.902344 -0.90332 0.902344 -1.80664v-17.1572v-18.9629v0z" />
    <glyph glyph-name="uniF101" unicode="&#xf101;" 
d="M27.9932 246.29h567.083c15.3506 0 27.9922 -12.6426 27.9922 -27.9932v-373.841c0 -3.6123 -1.80566 -7.22461 -4.51465 -9.93359l-96.6211 -96.6201c-2.70898 -2.70898 -6.32031 -4.51562 -9.93262 -4.51562h-484.007c-15.3516 0 -27.9932 12.6426 -27.9932 27.9932
v456.917c0 15.3506 12.6416 27.9932 27.9932 27.9932zM27.9932 219.2v-111.069h567.083v111.069h-567.083zM152.606 191.207c14.4482 0 27.9932 -12.6416 27.9932 -27.9932c0 -15.3506 -12.6416 -27.9932 -27.9932 -27.9932c-15.3506 0 -27.9932 12.6426 -27.9932 27.9932
c0 15.3516 12.6426 27.9932 27.9932 27.9932zM470.462 191.207c15.3516 0 27.9932 -12.6416 27.9932 -27.9932c0 -15.3506 -12.6416 -27.9932 -27.9932 -27.9932c-15.3506 0 -27.9932 12.6426 -27.9932 27.9932c0 15.3516 12.6426 27.9932 27.9932 27.9932zM27.9932 80.1387
v0v-318.759h469.559v69.5312c0 15.3506 12.6426 27.9922 27.9932 27.9922h69.5312v221.235h-567.083zM103.845 32.2793h83.0762v-96.6211h-83.0762v96.6211zM214.914 32.2793h83.0752v-96.6211h-83.0752v96.6211zM325.079 32.2793h83.0762v-96.6211h-83.0762v96.6211z
M436.148 32.2793h83.0752v-96.6211h-83.0752v96.6211zM103.845 -92.334v0h83.0762v-96.6211h-83.0762v96.6211zM214.914 -92.334v0h83.0752v-96.6211h-83.0752v96.6211zM325.079 -92.334v0h83.0762v-96.6211h-83.0762v96.6211zM525.545 -168.187v-49.665l49.665 49.665
h-49.665z" />
    <glyph glyph-name="uniF102" unicode="&#xf102;" 
d="M0 188.84l305.214 57.792v-512l-305.214 56.8887v397.319zM554.44 -215.704h-259.16c-12.6416 0 -22.5752 10.8359 -22.5752 22.5752v364.812c0 12.6416 10.8359 22.5752 22.5752 22.5752h259.16c12.6426 0 22.5752 -10.8359 22.5752 -22.5752v-364.812
c0 -12.6416 -9.93262 -22.5752 -22.5752 -22.5752zM295.28 174.392c-1.80566 0 -2.70898 -0.90332 -2.70898 -2.70898v-364.812c0 -1.80566 0.90332 -2.70898 2.70898 -2.70898h259.16c1.80664 0 2.70996 0.90332 2.70996 2.70898v364.812
c0 1.80566 -0.90332 2.70898 -2.70996 2.70898h-259.16zM516.515 -27.8799h-34.3135v119.195h-158.928v35.2168h193.241v-154.412zM498.455 -58.582l-61.4043 67.7246h61.4043h59.5977zM404.841 -27.9951l65.7666 -65.7666l-65.7666 -65.7666l-65.7666 65.7666z" />
    <glyph glyph-name="uniF100" unicode="&#xf100;" 
d="M519.224 -22.4619c32.5078 0 49.665 10.8359 62.3076 22.5752v-119.196c-12.6426 -10.8359 -29.7998 -18.9629 -63.21 -18.9629h-220.332c-19.8662 0 -36.1201 13.5449 -36.1201 32.5078v46.9561c0 19.8662 17.1572 36.1201 36.1201 36.1201h221.234zM319.661 -111.859
c17.1572 0 31.6055 13.5459 31.6055 31.6055c0 17.1572 -14.4482 31.6045 -31.6055 31.6045c-17.1562 0 -31.6045 -14.4473 -31.6045 -31.6045s14.4482 -31.6055 31.6045 -31.6055zM539.993 143.689c23.4775 0 41.5381 -18.0596 41.5381 -42.4404v-63.21l-3.6123 -10.8359
c-0.90332 -1.80664 -13.5449 -29.7988 -58.6953 -29.7988h-221.234c-29.7988 0 -55.083 -26.1875 -55.083 -55.9863v-46.9561c0 -29.7988 25.2842 -51.4707 55.083 -51.4707h220.332c28.8955 0 50.5674 3.6123 63.21 13.5449v-57.792
c0 -36.1201 -28.8965 -64.1123 -65.0166 -64.1123h-447.887c-37.0234 0 -68.6279 27.9922 -68.6279 64.1123v383.774c0 37.0225 31.6045 63.21 68.6279 64.1133h448.79c36.1201 0 65.9189 -16.2549 65.9189 -89.3975c0 0 -12.6416 26.1875 -50.5684 26.1875
c-26.1865 0 -414.476 0.902344 -414.476 0.902344c-34.3145 0 -45.1504 -17.1562 -45.1504 -38.8291v-1.80566h466.851zM152.606 -152.494c18.9629 0 34.3145 6.32129 44.2471 9.93359l-5.41797 18.9629c-6.32129 -4.51562 -20.7686 -9.93359 -36.1201 -9.93359
c-16.2539 0 -30.7021 6.32129 -41.5381 18.0605c-8.12695 9.03027 -13.5449 20.7686 -16.2539 39.7314h81.2705v12.6426h-83.0762v5.41797c0 4.51465 0.90332 8.12695 0.90332 14.4473h82.1729v12.6426h-79.4639c2.70898 12.6416 9.0293 28.8955 17.1562 37.9258
c9.93359 10.8359 22.5752 16.2539 38.8291 16.2539c13.5449 0 26.1875 -3.6123 33.4111 -8.12695l5.41797 18.9629c-8.12695 4.51465 -21.6719 9.93262 -38.8291 9.93262c-23.4775 0 -42.4404 -9.0293 -57.792 -24.3809
c-12.6416 -11.7383 -20.7686 -30.7012 -24.3809 -49.665h-21.6719v-12.6416h19.8662c-0.90332 -6.32129 -0.90332 -10.8359 -0.90332 -15.3506v-3.6123h-18.9629v-12.6416h19.8662c1.80566 -25.2842 9.03027 -39.7324 20.7686 -51.4717
c15.3516 -17.1562 37.0234 -27.0898 60.501 -27.0898z" />
  </font>
</defs></svg>
